n_domain 4
default_v1 1.0 default_v2 0.0 default_v3 0.0 default_v4 1.0
x_min 0.15 x_max 0.42 y_min 0.35 y_max 0.6 v1 0.01 v2 0.0 v3 0.0 v4 0.01
x_min 0.58 x_max 0.85 y_min 0.35 y_max 0.6 v1 0.02 v2 0.0 v3 0.0 v4 0.02
x_min 0.41 x_max 0.59 y_min 0.75 y_max 0.85 v1 0.01 v2 0.0 v3 0.0 v4 0.01
